…
``` r
getFran <- function(){
  fullurl <- paste0(baseurl_records, "/", "franchise")
  fran <- GET(fullurl) %>% content("text") %>% fromJSON(flatten = TRUE)
  return(fran$data)
}
getFran() %>% tbl_df()
```

    ## No encoding supplied: defaulting to UTF-8.

    ## # A tibble: 38 x 6
    ##       id firstSeasonId lastSeasonId mostRecentTeamId
    ##    <int>         <int>        <int>            <int>
    ##  1     1      19171918           NA                8
    ##  2     2      19171918     19171918               41
    ##  3     3      19171918     19341935               45
    ##  4     4      19191920     19241925               37
    ##  5     5      19171918           NA               10
    ##  6     6      19241925           NA                6
    ##  7     7      19241925     19371938               43
    ##  8     8      19251926     19411942               51
    ##  9     9      19251926     19301931               39
    ## 10    10      19261927           NA                3
    ## # ... with 28 more rows, and 2 more variables:
    ## #   teamCommonName <chr>, teamPlaceName <chr>
…
``` r
getFranTeamTot <- function() {
  fullurl <- paste0(baseurl_records, "/", "franchise-team-totals")
  franTeamTot <- GET(fullurl) %>% content("text") %>% fromJSON(flatten = TRUE)
  return(franTeamTot$data)
}
getFranTeamTot() %>% tbl_df()
```

    ## No encoding supplied: defaulting to UTF-8.

    ## # A tibble: 105 x 30
    ##       id activeFranchise firstSeasonId franchiseId
    ##    <int>           <int>         <int>       <int>
    ##  1     1               1      19821983          23
    ##  2     2               1      19821983          23
    ##  3     3               1      19721973          22
    ##  4     4               1      19721973          22
    ##  5     5               1      19261927          10
    ##  6     6               1      19261927          10
    ##  7     7               1      19671968          16
    ##  8     8               1      19671968          16
    ##  9     9               1      19671968          17
    ## 10    10               1      19671968          17
    ## # ... with 95 more rows, and 26 more variables:
    ## #   gameTypeId <int>, gamesPlayed <int>,
    ## #   goalsAgainst <int>, goalsFor <int>, homeLosses <int>,
    ## #   homeOvertimeLosses <int>, homeTies <int>,
    ## #   homeWins <int>, lastSeasonId <int>, losses <int>,
    ## #   overtimeLosses <int>, penaltyMinutes <int>,
    ## #   pointPctg <dbl>, points <int>, roadLosses <int>,
    ## #   roadOvertimeLosses <int>, roadTies <int>,
    ## #   roadWins <int>, shootoutLosses <int>,
…
    ## No encoding supplied: defaulting to UTF-8.

    ## # A tibble: 39 x 29
    ##       id activePlayer firstName franchiseId franchiseName
    ##    <int> <lgl>        <chr>           <int> <chr>        
    ##  1   243 FALSE        Kirk               20 Vancouver Ca~
    ##  2   297 FALSE        Roberto            20 Vancouver Ca~
    ##  3   304 FALSE        Richard            20 Vancouver Ca~
    ##  4   364 FALSE        Gary               20 Vancouver Ca~
    ##  5   367 FALSE        Sean               20 Vancouver Ca~
    ##  6   373 FALSE        Jacques            20 Vancouver Ca~
    ##  7   406 FALSE        Bob                20 Vancouver Ca~
    ##  8   423 FALSE        Troy               20 Vancouver Ca~
    ##  9   424 FALSE        John               20 Vancouver Ca~
    ## 10   500 FALSE        Bob                20 Vancouver Ca~
    ## # ... with 29 more rows, and 24 more variables:
    ## #   gameTypeId <int>, gamesPlayed <int>, lastName <chr>,
    ## #   losses <int>, mostGoalsAgainstDates <chr>,
    ## #   mostGoalsAgainstOneGame <int>, mostSavesDates <chr>,
    ## #   mostSavesOneGame <int>, mostShotsAgainstDates <chr>,
    ## #   mostShotsAgainstOneGame <int>,
    ## #   mostShutoutsOneSeason <int>,
    ## #   mostShutoutsSeasonIds <chr>, mostWinsOneSeason <int>,
    ## #   mostWinsSeasonIds <chr>, overtimeLosses <int>,
    ## #   playerId <int>, positionCode <chr>,
    ## #   rookieGamesPlayed <int>, rookieShutouts <int>,
    ## #   rookieWins <int>, seasons <int>, shutouts <int>,
    ## #   ties <int>, wins <int>

``` r
getFranGoaRec("Vancouver Canucks") %>% tbl_df()
```

    ## No encoding supplied: defaulting to UTF-8.

    ## # A tibble: 39 x 29
    ##       id activePlayer firstName franchiseId franchiseName
    ##    <int> <lgl>        <chr>           <int> <chr>        
    ##  1   243 FALSE        Kirk               20 Vancouver Ca~
    ##  2   297 FALSE        Roberto            20 Vancouver Ca~
    ##  3   304 FALSE        Richard            20 Vancouver Ca~
    ##  4   364 FALSE        Gary               20 Vancouver Ca~
    ##  5   367 FALSE        Sean               20 Vancouver Ca~
    ##  6   373 FALSE        Jacques            20 Vancouver Ca~
    ##  7   406 FALSE        Bob                20 Vancouver Ca~
    ##  8   423 FALSE        Troy               20 Vancouver Ca~
    ##  9   424 FALSE        John               20 Vancouver Ca~
    ## 10   500 FALSE        Bob                20 Vancouver Ca~
    ## # ... with 29 more rows, and 24 more variables:
    ## #   gameTypeId <int>, gamesPlayed <int>, lastName <chr>,
    ## #   losses <int>, mostGoalsAgainstDates <chr>,
    ## #   mostGoalsAgainstOneGame <int>, mostSavesDates <chr>,
    ## #   mostSavesOneGame <int>, mostShotsAgainstDates <chr>,
    ## #   mostShotsAgainstOneGame <int>,
    ## #   mostShutoutsOneSeason <int>,
    ## #   mostShutoutsSeasonIds <chr>, mostWinsOneSeason <int>,
    ## #   mostWinsSeasonIds <chr>, overtimeLosses <int>,
…
    ## No encoding supplied: defaulting to UTF-8.

    ## # A tibble: 561 x 30
    ##       id activePlayer assists firstName franchiseId
    ##    <int> <lgl>          <int> <chr>           <int>
    ##  1 16941 FALSE            648 Daniel             20
    ##  2 16942 FALSE            830 Henrik             20
    ##  3 17026 FALSE             52 Gino               20
    ##  4 17057 FALSE            224 Pavel              20
    ##  5 17115 FALSE             53 Donald             20
    ##  6 17141 FALSE            410 Markus             20
    ##  7 17178 FALSE            242 Doug               20
    ##  8 17222 FALSE             18 Claire             20
    ##  9 17238 FALSE              1 Jim                20
    ## 10 17241 FALSE            190 Greg               20
    ## # ... with 551 more rows, and 25 more variables:
    ## #   franchiseName <chr>, gameTypeId <int>,
    ## #   gamesPlayed <int>, goals <int>, lastName <chr>,
    ## #   mostAssistsGameDates <chr>, mostAssistsOneGame <int>,
    ## #   mostAssistsOneSeason <int>, mostAssistsSeasonIds <chr>,
    ## #   mostGoalsGameDates <chr>, mostGoalsOneGame <int>,
    ## #   mostGoalsOneSeason <int>, mostGoalsSeasonIds <chr>,
    ## #   mostPenaltyMinutesOneSeason <int>,
    ## #   mostPenaltyMinutesSeasonIds <chr>,
    ## #   mostPointsGameDates <chr>, mostPointsOneGame <int>,
    ## #   mostPointsOneSeason <int>, mostPointsSeasonIds <chr>,
    ## #   penaltyMinutes <int>, playerId <int>, points <int>,
    ## #   positionCode <chr>, rookiePoints <int>, seasons <int>

``` r
getFranSkaRec("Vancouver Canucks") %>% tbl_df()
```

    ## No encoding supplied: defaulting to UTF-8.

    ## # A tibble: 561 x 30
    ##       id activePlayer assists firstName franchiseId
    ##    <int> <lgl>          <int> <chr>           <int>
    ##  1 16941 FALSE            648 Daniel             20
    ##  2 16942 FALSE            830 Henrik             20
    ##  3 17026 FALSE             52 Gino               20
    ##  4 17057 FALSE            224 Pavel              20
    ##  5 17115 FALSE             53 Donald             20
    ##  6 17141 FALSE            410 Markus             20
    ##  7 17178 FALSE            242 Doug               20
    ##  8 17222 FALSE             18 Claire             20
    ##  9 17238 FALSE              1 Jim                20
    ## 10 17241 FALSE            190 Greg               20
    ## # ... with 551 more rows, and 25 more variables:
    ## #   franchiseName <chr>, gameTypeId <int>,
    ## #   gamesPlayed <int>, goals <int>, lastName <chr>,
    ## #   mostAssistsGameDates <chr>, mostAssistsOneGame <int>,
    ## #   mostAssistsOneSeason <int>, mostAssistsSeasonIds <chr>,
    ## #   mostGoalsGameDates <chr>, mostGoalsOneGame <int>,
    ## #   mostGoalsOneSeason <int>, mostGoalsSeasonIds <chr>,
    ## #   mostPenaltyMinutesOneSeason <int>,
    ## #   mostPenaltyMinutesSeasonIds <chr>,
…
  } else {
    stats <- as.data.frame(stats$teams)
  }
  if (is.null(stats)) {
    stop("No information is available")
  } 
  return(stats)
}
# getStats(teamID = 20, expand = "team.stats")
# getStats(teamID = 20, expand = "person.names")
# getStats(teamID = 20, expand = "team.schedule.next")
getStats(expand = "team.roster&season=20142015") %>% tbl_df()
```

    ## # A tibble: 30 x 31
    ##       id name  link  abbreviation teamName locationName
    ##    <int> <chr> <chr> <chr>        <chr>    <chr>       
    ##  1     1 New ~ /api~ NJD          Devils   New Jersey  
    ##  2     2 New ~ /api~ NYI          Islande~ New York    
    ##  3     3 New ~ /api~ NYR          Rangers  New York    
    ##  4     4 Phil~ /api~ PHI          Flyers   Philadelphia
    ##  5     5 Pitt~ /api~ PIT          Penguins Pittsburgh  
    ##  6     6 Bost~ /api~ BOS          Bruins   Boston      
    ##  7     7 Buff~ /api~ BUF          Sabres   Buffalo     
    ##  8     8 Mont~ /api~ MTL          Canadie~ Montréal    
    ##  9     9 Otta~ /api~ OTT          Senators Ottawa      
    ## 10    10 Toro~ /api~ TOR          Maple L~ Toronto     
    ## # ... with 20 more rows, and 25 more variables:
    ## #   firstYearOfPlay <chr>, shortName <chr>,
    ## #   officialSiteUrl <chr>, franchiseId <int>, active <lgl>,
    ## #   venue.name <chr>, venue.link <chr>, venue.city <chr>,
    ## #   venue.id <int>, venue.timeZone.id <chr>,
    ## #   venue.timeZone.offset <int>, venue.timeZone.tz <chr>,
    ## #   division.id <int>, division.name <chr>,
    ## #   division.nameShort <chr>, division.link <chr>,
    ## #   division.abbreviation <chr>, conference.id <int>,
…
    ## No encoding supplied: defaulting to UTF-8.

    ## # A tibble: 561 x 30
    ##       id activePlayer assists firstName franchiseId
    ##    <int> <lgl>          <int> <chr>           <int>
    ##  1 16941 FALSE            648 Daniel             20
    ##  2 16942 FALSE            830 Henrik             20
    ##  3 17026 FALSE             52 Gino               20
    ##  4 17057 FALSE            224 Pavel              20
    ##  5 17115 FALSE             53 Donald             20
    ##  6 17141 FALSE            410 Markus             20
    ##  7 17178 FALSE            242 Doug               20
    ##  8 17222 FALSE             18 Claire             20
    ##  9 17238 FALSE              1 Jim                20
    ## 10 17241 FALSE            190 Greg               20
    ## # ... with 551 more rows, and 25 more variables:
    ## #   franchiseName <chr>, gameTypeId <int>,
    ## #   gamesPlayed <int>, goals <int>, lastName <chr>,
    ## #   mostAssistsGameDates <chr>, mostAssistsOneGame <int>,
    ## #   mostAssistsOneSeason <int>, mostAssistsSeasonIds <chr>,
    ## #   mostGoalsGameDates <chr>, mostGoalsOneGame <int>,
    ## #   mostGoalsOneSeason <int>, mostGoalsSeasonIds <chr>,
    ## #   mostPenaltyMinutesOneSeason <int>,
    ## #   mostPenaltyMinutesSeasonIds <chr>,
    ## #   mostPointsGameDates <chr>, mostPointsOneGame <int>,
    ## #   mostPointsOneSeason <int>, mostPointsSeasonIds <chr>,
    ## #   penaltyMinutes <int>, playerId <int>, points <int>,
    ## #   positionCode <chr>, rookiePoints <int>, seasons <int>

``` r
nhlFun(endpoints = "stats", expand = "person.team") %>% tbl_df()
```

    ## # A tibble: 31 x 29
    ##       id name  link  abbreviation teamName locationName
    ##    <int> <chr> <chr> <chr>        <chr>    <chr>       
    ##  1     1 New ~ /api~ NJD          Devils   New Jersey  
    ##  2     2 New ~ /api~ NYI          Islande~ New York    
    ##  3     3 New ~ /api~ NYR          Rangers  New York    
    ##  4     4 Phil~ /api~ PHI          Flyers   Philadelphia
    ##  5     5 Pitt~ /api~ PIT          Penguins Pittsburgh  
    ##  6     6 Bost~ /api~ BOS          Bruins   Boston      
    ##  7     7 Buff~ /api~ BUF          Sabres   Buffalo     
    ##  8     8 Mont~ /api~ MTL          Canadie~ Montréal    
    ##  9     9 Otta~ /api~ OTT          Senators Ottawa      
    ## 10    10 Toro~ /api~ TOR          Maple L~ Toronto     
    ## # ... with 21 more rows, and 23 more variables:
    ## #   firstYearOfPlay <chr>, shortName <chr>,
    ## #   officialSiteUrl <chr>, franchiseId <int>, active <lgl>,
    ## #   venue.name <chr>, venue.link <chr>, venue.city <chr>,
    ## #   venue.id <int>, venue.timeZone.id <chr>,
    ## #   venue.timeZone.offset <int>, venue.timeZone.tz <chr>,
    ## #   division.id <int>, division.name <chr>,
    ## #   division.nameShort <chr>, division.link <chr>,
    ## #   division.abbreviation <chr>, conference.id <int>,
…
